{
	"game":{
		"playfield":{"columns": 3, "rows": 5},
		"payline": {"type": "any", "rows": [1]},
		"player":{"startBalance": 10000, "wager": 100},
		"symbols": {"spritesheet_url": "assets/spritesheet.png", "count": 5, "info":[{"x":0, "y":0, "width":256, "height":256, "multiplier": 10}, {"x":256, "y":0, "width":256, "height":256, "multiplier": 20}, {"x":512, "y":0, "width":256, "height":256, "multiplier": 30}, {"x":768, "y":0, "width":256, "height":256, "multiplier": 40}, {"x":0, "y":256, "width":256, "height":256, "multiplier": 50}, {"x":256, "y":256, "width":256, "height":256, "multiplier": 60}, {"x":512, "y":256, "width":256, "height":256, "multiplier": 70}, {"x":768, "y":256, "width":256, "height":256, "multiplier": 80}, {"x":0, "y":512, "width":256, "height":256, "multiplier": 90},{"x":256, "y":512, "width":256, "height":256, "multiplier": 100}]}
		
	}
}